test/test_mul.vcd
$date
	Fri Apr 24 16:15:37 2026
$end
$version
	Icarus Verilog
$end
$timescale
	1ps
$end
$scope module tb_mul $end
$var wire 16 ! y [15:0] $end
$var wire 1 " ready $end
$var parameter 32 # clk_period $end
$var parameter 32 $ rst_time $end
$var reg 1 % clk $end
$var reg 1 & en $end
$var reg 1 ' rst $end
$var reg 16 ( x1 [15:0] $end
$var reg 16 ) x2 [15:0] $end
$scope module uut $end
$var wire 1 % clk $end
$var wire 1 & en $end
$var wire 1 * p_s $end
$var wire 1 " ready $end
$var wire 1 ' rst $end
$var wire 16 + x1 [15:0] $end
$var wire 16 , x2 [15:0] $end
$var wire 16 - y [15:0] $end
$var wire 8 . sub_out [7:0] $end
$var wire 55 / seg_reg0_out [54:0] $end
$var wire 16 0 result [15:0] $end
$var wire 16 1 reg_p_out [15:0] $end
$var wire 16 2 reg_b_out [15:0] $end
$var wire 16 3 reg_a_out [15:0] $end
$var wire 8 4 p_mant [7:0] $end
$var wire 8 5 p_exp [7:0] $end
$var wire 16 6 mult_out [15:0] $end
$var wire 11 7 mant_grs [10:0] $end
$var wire 8 8 exp_grs [7:0] $end
$var wire 1 9 end3 $end
$var wire 1 : end2 $end
$var wire 1 ; end1 $end
$var wire 8 < adder_out [7:0] $end
$scope module reg1en $end
$var wire 1 % clk $end
$var wire 1 & d $end
$var wire 1 = en $end
$var wire 1 ' rst $end
$var parameter 32 > N $end
$var reg 1 ; q $end
$upscope $end
$scope module reg2en $end
$var wire 1 % clk $end
$var wire 1 ; d $end
$var wire 1 ? en $end
$var wire 1 ' rst $end
$var parameter 32 @ N $end
$var reg 1 : q $end
$upscope $end
$scope module reg3en $end
$var wire 1 % clk $end
$var wire 1 : d $end
$var wire 1 A en $end
$var wire 1 ' rst $end
$var parameter 32 B N $end
$var reg 1 9 q $end
$upscope $end
$scope module rounder0 $end
$var wire 8 C exp_i [7:0] $end
$var wire 11 D mant_i [10:0] $end
$var wire 8 E mant_shift_output [7:0] $end
$var wire 8 F mant_o [7:0] $end
$var wire 9 G mant_adder_output [8:0] $end
$var wire 8 H exp_o [7:0] $end
$var wire 8 I exp_adder_output [7:0] $end
$var reg 9 J mant_rounded [8:0] $end
$upscope $end
$scope module seg_reg0 $end
$var wire 1 % clk $end
$var wire 55 K d [54:0] $end
$var wire 1 ; en $end
$var wire 1 ' rst $end
$var parameter 32 L N $end
$var reg 55 M q [54:0] $end
$upscope $end
$scope module x1reg $end
$var wire 1 % clk $end
$var wire 16 N d [15:0] $end
$var wire 1 & en $end
$var wire 1 ' rst $end
$var parameter 32 O N $end
$var reg 16 P q [15:0] $end
$upscope $end
$scope module x2reg $end
$var wire 1 % clk $end
$var wire 16 Q d [15:0] $end
$var wire 1 & en $end
$var wire 1 ' rst $end
$var parameter 32 R N $end
$var reg 16 S q [15:0] $end
$upscope $end
$scope module yreg $end
$var wire 1 % clk $end
$var wire 16 T d [15:0] $end
$var wire 1 : en $end
$var wire 1 ' rst $end
$var parameter 32 U N $end
$var reg 16 V q [15:0] $end
$upscope $end
$upscope $end
$upscope $end
$enddefinitions $end
$comment Show the parameter values. $end
$dumpall
b10000 U
b10000 R
b10000 O
b110111 L
b1 B
b1 @
b1 >
b1100100 $
b1010 #
$end
#0
$dumpvars
b0 V
b0 T
b0 S
b0 Q
b0 P
b0 N
b0 M
b100000010100000000000000 K
b0 J
b1 I
b0 H
b1 G
b0 F
b0 E
b0 D
b0 C
1A
1?
1=
b0 <
0;
0:
09
b0 8
b0 7
b100000000000000 6
b0 5
b0 4
b0 3
b0 2
b0 1
b0 0
b0 /
b10000001 .
b0 -
b0 ,
b0 +
0*
b0 )
b0 (
1'
0&
0%
0"
b0 !
$end
#5000
1%
#10000
0%
#15000
1%
#20000
0%
#25000
1%
#30000
0%
#35000
1%
#40000
0%
#45000
1%
#50000
0%
#55000
1%
#60000
0%
#65000
1%
#70000
0%
#75000
1%
#80000
0%
#85000
1%
#90000
0%
#95000
1%
#100000
b1011010000011011 (
b1011010000011011 +
b1011010000011011 N
0%
1&
0'
b110001000101010 )
b110001000101010 ,
b110001000101010 Q
#105000
b110011011101110 6
b1011010000011011110001000101010101011010110011011101110 K
1*
b10101101 .
b101100 <
1;
b110001000101010 2
b110001000101010 S
b1011010000011011 3
b1011010000011011 P
1%
#110000
b110001000101010 (
b110001000101010 +
b110001000101010 N
0%
0&
#115000
b11001110 4
b11001110 F
b11001101 E
b1101011011001110 0
b1101011011001110 T
b11001110 G
b11001110 J
b10101101 5
b10101101 H
b11001101110 7
b11001101110 D
b10101110 I
b10101101 8
b10101101 C
b1011010000011011110001000101010101011010110011011101110 /
b1011010000011011110001000101010101011010110011011101110 M
0;
1:
1%
#120000
b0 (
b0 +
b0 N
0%
b0 )
b0 ,
b0 Q
#125000
1"
19
0:
b1101011011001110 !
b1101011011001110 -
b1101011011001110 1
b1101011011001110 V
1%
#130000
b1000010000000000 (
b1000010000000000 +
b1000010000000000 N
0%
b10000000000 )
b10000000000 ,
b10000000000 Q
#135000
0"
09
1%
#140000
b101110000000000 (
b101110000000000 +
b101110000000000 N
0%
b1101110000000000 )
b1101110000000000 ,
b1101110000000000 Q
#145000
1%
#150000
b100001001001000 (
b100001001001000 +
b100001001001000 N
0%
b100000101101111 )
b100000101101111 ,
b100000101101111 Q
#155000
1%
#160000
b1111111111111 (
b1111111111111 +
b1111111111111 N
0%
b10001111111111 )
b10001111111111 ,
b10001111111111 Q
